…
The target that generates the graphs for each zone is `zones_stats`,
which was defined as follows:

``` r
  tar_target(zones_stats, {
    stats = dplyr::full_join(commute_stats, school_stats_from, by = "DataZone")
    stats = dplyr::full_join(stats, utility_stats, by = "DataZone")
    stats
  }),
```

The data in `zones_stats` is as follows:

    # A tibble: 378 × 301
       DataZone  comm_orig_all comm_orig_bicycle comm_orig_car comm_orig_foot
       <chr>             <dbl>             <dbl>         <dbl>          <dbl>
     1 S01007481        216.               3.89         184.            22.4 
     2 S01007482         99.2              2.92          72.0           18.5 
     3 S01007483        145.               3.89         108.            26.9 
     4 S01007484         74.4              1.46          56.9           14.1 
     5 S01007485         12.6              0             11.7            0   
     6 S01007486          8.75             0              6.81           0   
     7 S01007487         37.9              0.973         27.2            3.89
     8 S01007488         37.0              0             31.1            3.89
     9 S01007489        139.               4.86         116.            12.6 
    10 S01007490         38.9              0             33.1            5.84
    # ℹ 368 more rows
    # ℹ 296 more variables: comm_orig_public_transport <dbl>, comm_orig_taxi <dbl>,
    #   comm_dest_all <dbl>, comm_dest_bicycle <dbl>, comm_dest_car <dbl>,
    #   comm_dest_foot <dbl>, comm_dest_public_transport <dbl>,
    #   comm_dest_taxi <dbl>, comm_orig_bicycle_go_dutch_fastest <dbl>,
    #   comm_orig_car_go_dutch_fastest <dbl>,
    #   comm_orig_public_transport_go_dutch_fastest <dbl>, …
…
